/Users/martamolinaperez/NetBeansProjects/MolinaPerezMartaPrac1/src/main/java/newPackage/Constantes.java
/Users/martamolinaperez/NetBeansProjects/MolinaPerezMartaPrac1/src/main/java/newPackage/GeneradorEscena.java
/Users/martamolinaperez/NetBeansProjects/MolinaPerezMartaPrac1/src/main/java/newPackage/RederizadorEscena.java
/Users/martamolinaperez/NetBeansProjects/MolinaPerezMartaPrac1/src/main/java/newPackage/Finalizador.java
/Users/martamolinaperez/NetBeansProjects/MolinaPerezMartaPrac1/src/main/java/newPackage/Escena.java
/Users/martamolinaperez/NetBeansProjects/MolinaPerezMartaPrac1/src/main/java/newPackage/main.java
/Users/martamolinaperez/NetBeansProjects/MolinaPerezMartaPrac1/src/main/java/newPackage/Fotograma.java
